<mxfile host="app.diagrams.net" modified="2024-04-09T21:10:21.059Z" agent="Mozilla/5.0 (Macintosh; Intel Mac OS X 10_15_7) AppleWebKit/537.36 (KHTML, like Gecko) Chrome/123.0.0.0 Safari/537.36" etag="gglyC3q82cDOu7ZMkHAR" version="24.2.3" type="google">
  <diagram name="Page-1" id="WHvJbr8c4632_aIxdpEA">
    <mxGraphModel grid="1" page="1" gridSize="10" guides="1" tooltips="1" connect="1" arrows="1" fold="1" pageScale="1" pageWidth="850" pageHeight="1100" math="0" shadow="0">
      <root>
        <mxCell id="0" />
        <mxCell id="1" parent="0" />
        <mxCell id="1dweq-aMOn0xLZCLis6c-1" value="Start" style="rounded=0;whiteSpace=wrap;html=1;" vertex="1" parent="1">
          <mxGeometry x="70" y="-2160" width="120" height="60" as="geometry" />
        </mxCell>
        <mxCell id="1dweq-aMOn0xLZCLis6c-2" value="" style="endArrow=classic;html=1;rounded=0;fontSize=12;startSize=8;endSize=8;curved=1;exitX=1;exitY=0.5;exitDx=0;exitDy=0;entryX=0;entryY=0.407;entryDx=0;entryDy=0;entryPerimeter=0;" edge="1" parent="1" source="1dweq-aMOn0xLZCLis6c-1" target="1dweq-aMOn0xLZCLis6c-3">
          <mxGeometry width="50" height="50" relative="1" as="geometry">
            <mxPoint x="200" y="-2130.5" as="sourcePoint" />
            <mxPoint x="300" y="-2130.5" as="targetPoint" />
          </mxGeometry>
        </mxCell>
        <mxCell id="1dweq-aMOn0xLZCLis6c-3" value="Ship Starts Moving" style="rounded=0;whiteSpace=wrap;html=1;" vertex="1" parent="1">
          <mxGeometry x="330" y="-2160" width="120" height="70" as="geometry" />
        </mxCell>
        <mxCell id="1dweq-aMOn0xLZCLis6c-4" value="If in range of pirate ship" style="rounded=0;whiteSpace=wrap;html=1;" vertex="1" parent="1">
          <mxGeometry x="230" y="-2050" width="120" height="60" as="geometry" />
        </mxCell>
        <mxCell id="1dweq-aMOn0xLZCLis6c-5" value="Fire Cannons" style="rounded=0;whiteSpace=wrap;html=1;" vertex="1" parent="1">
          <mxGeometry x="70" y="-1960" width="120" height="60" as="geometry" />
        </mxCell>
        <mxCell id="1dweq-aMOn0xLZCLis6c-6" value="Evade" style="rounded=0;whiteSpace=wrap;html=1;" vertex="1" parent="1">
          <mxGeometry x="260" y="-1960" width="120" height="60" as="geometry" />
        </mxCell>
        <mxCell id="1dweq-aMOn0xLZCLis6c-7" value="" style="endArrow=classic;html=1;rounded=0;fontSize=12;startSize=8;endSize=8;curved=1;entryX=0.5;entryY=0;entryDx=0;entryDy=0;" edge="1" parent="1" target="1dweq-aMOn0xLZCLis6c-4">
          <mxGeometry width="50" height="50" relative="1" as="geometry">
            <mxPoint x="380" y="-2090" as="sourcePoint" />
            <mxPoint x="290" y="-2040" as="targetPoint" />
          </mxGeometry>
        </mxCell>
        <mxCell id="1dweq-aMOn0xLZCLis6c-8" value="" style="endArrow=classic;html=1;rounded=0;fontSize=12;startSize=8;endSize=8;curved=1;exitX=1;exitY=1;exitDx=0;exitDy=0;entryX=0.5;entryY=0;entryDx=0;entryDy=0;" edge="1" parent="1" source="1dweq-aMOn0xLZCLis6c-4" target="1dweq-aMOn0xLZCLis6c-6">
          <mxGeometry width="50" height="50" relative="1" as="geometry">
            <mxPoint x="360" y="-2010" as="sourcePoint" />
            <mxPoint x="450" y="-2000" as="targetPoint" />
          </mxGeometry>
        </mxCell>
        <mxCell id="1dweq-aMOn0xLZCLis6c-9" value="" style="endArrow=classic;html=1;rounded=0;fontSize=12;startSize=8;endSize=8;curved=1;exitX=0;exitY=1;exitDx=0;exitDy=0;entryX=0.608;entryY=0;entryDx=0;entryDy=0;entryPerimeter=0;" edge="1" parent="1" source="1dweq-aMOn0xLZCLis6c-4" target="1dweq-aMOn0xLZCLis6c-5">
          <mxGeometry width="50" height="50" relative="1" as="geometry">
            <mxPoint x="300" y="-1980" as="sourcePoint" />
            <mxPoint x="320" y="-1930" as="targetPoint" />
          </mxGeometry>
        </mxCell>
        <mxCell id="1dweq-aMOn0xLZCLis6c-10" value="If nearby port" style="rounded=0;whiteSpace=wrap;html=1;" vertex="1" parent="1">
          <mxGeometry x="460" y="-2050" width="120" height="60" as="geometry" />
        </mxCell>
        <mxCell id="1dweq-aMOn0xLZCLis6c-11" value="Head to port" style="rounded=0;whiteSpace=wrap;html=1;" vertex="1" parent="1">
          <mxGeometry x="460" y="-1960" width="120" height="60" as="geometry" />
        </mxCell>
        <mxCell id="1dweq-aMOn0xLZCLis6c-12" value="Pass port" style="rounded=0;whiteSpace=wrap;html=1;" vertex="1" parent="1">
          <mxGeometry x="630" y="-1960" width="120" height="60" as="geometry" />
        </mxCell>
        <mxCell id="1dweq-aMOn0xLZCLis6c-13" value="" style="endArrow=classic;html=1;rounded=0;fontSize=12;startSize=8;endSize=8;curved=1;entryX=0.417;entryY=-0.008;entryDx=0;entryDy=0;entryPerimeter=0;" edge="1" parent="1" source="1dweq-aMOn0xLZCLis6c-10" target="1dweq-aMOn0xLZCLis6c-11">
          <mxGeometry width="50" height="50" relative="1" as="geometry">
            <mxPoint x="400" y="-1920" as="sourcePoint" />
            <mxPoint x="450" y="-1970" as="targetPoint" />
          </mxGeometry>
        </mxCell>
        <mxCell id="1dweq-aMOn0xLZCLis6c-14" value="" style="endArrow=classic;html=1;rounded=0;fontSize=12;startSize=8;endSize=8;curved=1;entryX=0.117;entryY=0.008;entryDx=0;entryDy=0;entryPerimeter=0;exitX=1;exitY=1;exitDx=0;exitDy=0;" edge="1" parent="1" source="1dweq-aMOn0xLZCLis6c-10" target="1dweq-aMOn0xLZCLis6c-12">
          <mxGeometry width="50" height="50" relative="1" as="geometry">
            <mxPoint x="573" y="-1980" as="sourcePoint" />
            <mxPoint x="580" y="-1920" as="targetPoint" />
          </mxGeometry>
        </mxCell>
        <mxCell id="1dweq-aMOn0xLZCLis6c-15" value="" style="endArrow=classic;html=1;rounded=0;fontSize=12;startSize=8;endSize=8;curved=1;entryX=0;entryY=0;entryDx=0;entryDy=0;exitX=1;exitY=1;exitDx=0;exitDy=0;" edge="1" parent="1" source="1dweq-aMOn0xLZCLis6c-3" target="1dweq-aMOn0xLZCLis6c-10">
          <mxGeometry width="50" height="50" relative="1" as="geometry">
            <mxPoint x="400" y="-1920" as="sourcePoint" />
            <mxPoint x="450" y="-1970" as="targetPoint" />
          </mxGeometry>
        </mxCell>
        <mxCell id="1dweq-aMOn0xLZCLis6c-36" style="edgeStyle=none;curved=1;rounded=0;orthogonalLoop=1;jettySize=auto;html=1;exitX=0.25;exitY=0;exitDx=0;exitDy=0;entryX=0.25;entryY=1;entryDx=0;entryDy=0;fontSize=12;startSize=8;endSize=8;" edge="1" parent="1" source="1dweq-aMOn0xLZCLis6c-17" target="1dweq-aMOn0xLZCLis6c-6">
          <mxGeometry relative="1" as="geometry" />
        </mxCell>
        <mxCell id="1dweq-aMOn0xLZCLis6c-17" value="If Captain Low on health" style="rounded=0;whiteSpace=wrap;html=1;" vertex="1" parent="1">
          <mxGeometry x="250" y="-1820" width="120" height="60" as="geometry" />
        </mxCell>
        <mxCell id="1dweq-aMOn0xLZCLis6c-22" style="edgeStyle=none;curved=1;rounded=0;orthogonalLoop=1;jettySize=auto;html=1;exitX=0;exitY=0;exitDx=0;exitDy=0;fontSize=12;startSize=8;endSize=8;" edge="1" parent="1" source="1dweq-aMOn0xLZCLis6c-18" target="1dweq-aMOn0xLZCLis6c-5">
          <mxGeometry relative="1" as="geometry" />
        </mxCell>
        <mxCell id="1dweq-aMOn0xLZCLis6c-18" value="If Captain high on health" style="rounded=0;whiteSpace=wrap;html=1;" vertex="1" parent="1">
          <mxGeometry y="-1830" width="120" height="60" as="geometry" />
        </mxCell>
        <mxCell id="1dweq-aMOn0xLZCLis6c-24" style="edgeStyle=none;curved=1;rounded=0;orthogonalLoop=1;jettySize=auto;html=1;exitX=0;exitY=0;exitDx=0;exitDy=0;fontSize=12;startSize=8;endSize=8;" edge="1" parent="1" source="1dweq-aMOn0xLZCLis6c-23" target="1dweq-aMOn0xLZCLis6c-5">
          <mxGeometry relative="1" as="geometry" />
        </mxCell>
        <mxCell id="1dweq-aMOn0xLZCLis6c-23" value="If enemy low on health" style="rounded=0;whiteSpace=wrap;html=1;" vertex="1" parent="1">
          <mxGeometry x="120" y="-1830" width="120" height="60" as="geometry" />
        </mxCell>
        <mxCell id="1dweq-aMOn0xLZCLis6c-27" style="edgeStyle=none;curved=1;rounded=0;orthogonalLoop=1;jettySize=auto;html=1;exitX=0;exitY=0;exitDx=0;exitDy=0;entryX=1;entryY=1;entryDx=0;entryDy=0;fontSize=12;startSize=8;endSize=8;" edge="1" parent="1" source="1dweq-aMOn0xLZCLis6c-25" target="1dweq-aMOn0xLZCLis6c-6">
          <mxGeometry relative="1" as="geometry" />
        </mxCell>
        <mxCell id="1dweq-aMOn0xLZCLis6c-25" value="If enemy high on health" style="rounded=0;whiteSpace=wrap;html=1;" vertex="1" parent="1">
          <mxGeometry x="400" y="-1790" width="120" height="60" as="geometry" />
        </mxCell>
        <mxCell id="1dweq-aMOn0xLZCLis6c-32" style="edgeStyle=none;curved=1;rounded=0;orthogonalLoop=1;jettySize=auto;html=1;exitX=0.25;exitY=0;exitDx=0;exitDy=0;entryX=0.5;entryY=1;entryDx=0;entryDy=0;fontSize=12;startSize=8;endSize=8;" edge="1" parent="1" source="1dweq-aMOn0xLZCLis6c-28" target="1dweq-aMOn0xLZCLis6c-11">
          <mxGeometry relative="1" as="geometry" />
        </mxCell>
        <mxCell id="1dweq-aMOn0xLZCLis6c-28" value="If money count is high" style="rounded=0;whiteSpace=wrap;html=1;" vertex="1" parent="1">
          <mxGeometry x="500" y="-1860" width="120" height="60" as="geometry" />
        </mxCell>
        <mxCell id="1dweq-aMOn0xLZCLis6c-29" style="edgeStyle=none;curved=1;rounded=0;orthogonalLoop=1;jettySize=auto;html=1;exitX=0.75;exitY=0;exitDx=0;exitDy=0;fontSize=12;startSize=8;endSize=8;" edge="1" parent="1" source="1dweq-aMOn0xLZCLis6c-25" target="1dweq-aMOn0xLZCLis6c-25">
          <mxGeometry relative="1" as="geometry" />
        </mxCell>
        <mxCell id="1dweq-aMOn0xLZCLis6c-33" style="edgeStyle=none;curved=1;rounded=0;orthogonalLoop=1;jettySize=auto;html=1;exitX=0.25;exitY=0;exitDx=0;exitDy=0;entryX=0.5;entryY=1;entryDx=0;entryDy=0;fontSize=12;startSize=8;endSize=8;" edge="1" parent="1" source="1dweq-aMOn0xLZCLis6c-31" target="1dweq-aMOn0xLZCLis6c-12">
          <mxGeometry relative="1" as="geometry" />
        </mxCell>
        <mxCell id="1dweq-aMOn0xLZCLis6c-31" value="If money count is low" style="rounded=0;whiteSpace=wrap;html=1;" vertex="1" parent="1">
          <mxGeometry x="680" y="-1860" width="120" height="60" as="geometry" />
        </mxCell>
      </root>
    </mxGraphModel>
  </diagram>
</mxfile>
